{
    "editor.fontSize": 16,
    "editor.glyphMargin": true,
    "editor.suggest.preview": true,
    "editor.cursorBlinking": "phase",
    "editor.wordWrap": "on",
    "files.autoSave": "afterDelay",
    "git.autofetch": true,
    "breadcrumbs.enabled": false,
    "telemetry.telemetryLevel": "off",
    "workbench.statusBar.visible": true,
    "workbench.activityBar.visible": true,
    "workbench.layoutControl.enabled": false,
    "window.titleBarStyle": "native",
    "workbench.preferredDarkColorTheme": "Default Dark+",
    "workbench.preferredLightColorTheme": "Default Light+",
    "window.autoDetectColorScheme": true
}
